{
    "theme": "dark",
    "editable": true,
    "auto_finish": true,
    "refresh_statistics": true,
    "render_mode": "svg",
    "aggregation": "mean",
    "title_format": "<h2>{name}:</h2> {title_columns}{title_dimensions}{names}{title_y}{title_z}{over_by}{title_x} {selection}<br><sub>{groupings}{filters} {title_trendline}</sub>"
}
